This is BibTeX, Version 0.99d (TeX Live 2013)
Capacity: max_strings=35307, hash_size=35307, hash_prime=30011
The top-level auxiliary file: report.aux
The style file: plain.bst
Database file #1: reportNotes.bib
Database file #2: bibs/refs.bib
You've used 6 entries,
            2118 wiz_defined-function locations,
            545 strings with 4731 characters,
and the built_in function-call counts, 1836 in all, are:
= -- 194
> -- 59
< -- 0
+ -- 24
- -- 18
* -- 120
:= -- 313
add.period$ -- 19
call.type$ -- 6
change.case$ -- 27
chr.to.int$ -- 0
cite$ -- 6
duplicate$ -- 62
empty$ -- 157
format.name$ -- 18
if$ -- 376
int.to.chr$ -- 0
int.to.str$ -- 6
missing$ -- 5
newline$ -- 34
num.names$ -- 12
pop$ -- 21
preamble$ -- 1
purify$ -- 21
quote$ -- 0
skip$ -- 42
stack$ -- 0
substring$ -- 167
swap$ -- 6
text.length$ -- 0
text.prefix$ -- 0
top$ -- 0
type$ -- 24
warning$ -- 0
while$ -- 22
width$ -- 7
write$ -- 69
