\begin{thebibliography}{1}

\bibitem{Alser80}
B.J. {Alser} and D.M. {Ceperley}.
\newblock Ground state of the electron gas by a stochastic method.
\newblock {\em Phys. Rev. Lett.}, 45:566--569, 1980.

\bibitem{Ceperley95}
D.M. {Ceperley}.
\newblock Path integal in the theory of condensed helium.
\newblock {\em Rev. Mod. Phys.}, 67:279--355, 1995.

\bibitem{Duxbury14}
P.~{Duxbury}.
\newblock Variational quantum monte carlo.
\newblock Lecture Notes, 2014.
\newblock Michigan State University: PHY480 \& PHY832.

\bibitem{Herman82}
M.F. {Herman}, E.J. {Bruskin}, and B.J. {Berne}.
\newblock On path integral monte carlo simulations.
\newblock {\em J. Chem. Phys.}, 76:5150--5155, 1982.

\bibitem{Jastrow55}
R.~{Jastrow}.
\newblock Many-body problem with strong forces.
\newblock {\em Phys. Rev.}, 98:1479--1484, 1955.

\bibitem{Kato57}
T.~{Kato}.
\newblock On the eigenfunctions of many-particle systems in quantum mechanics.
\newblock {\em Comm. Pure and Appl. Math.}, 10:151--177, 1957.

\end{thebibliography}
