\relax 
\citation{Herman82,Ceperley95}
\citation{Kato57,Jastrow55}
\citation{Alser80}
\citation{Jastrow55}
\citation{Duxbury14}
\newlabel{FirstPage}{{}{1}{}{}{}}
\@writefile{toc}{\contentsline {title}{Variational Quantum Monte Carlo of the Hydrogen Molecule}{1}{}}
\@writefile{toc}{\contentsline {abstract}{Abstract}{1}{}}
\@writefile{toc}{\contentsline {section}{\numberline {I}Introduction}{1}{}}
\newlabel{sec:intro}{{I}{1}{}{}{}}
\@writefile{toc}{\contentsline {section}{\numberline {II}Theory}{1}{}}
\newlabel{sec:theory}{{II}{1}{}{}{}}
\newlabel{eq:energy}{{1}{1}{}{}{}}
\newlabel{eq:H_total}{{2}{1}{}{}{}}
\newlabel{eq:variational-wave}{{9}{1}{}{}{}}
\newlabel{eq:phi-1}{{10}{1}{}{}{}}
\newlabel{eq:phi-2}{{11}{1}{}{}{}}
\newlabel{eq:jastrow}{{12}{1}{}{}{}}
\newlabel{eq:weight}{{13}{1}{}{}{}}
\newlabel{eq:local-e}{{14}{1}{}{}{}}
\newlabel{eq:epsilon}{{15}{1}{}{}{}}
\citation{Kato57,Jastrow55}
\citation{Duxbury14}
\bibdata{reportNotes,bibs/refs}
\bibcite{Alser80}{{1}{}{{}}{{}}}
\bibcite{Ceperley95}{{2}{}{{}}{{}}}
\bibcite{Duxbury14}{{3}{}{{}}{{}}}
\bibcite{Herman82}{{4}{}{{}}{{}}}
\bibcite{Jastrow55}{{5}{}{{}}{{}}}
\bibcite{Kato57}{{6}{}{{}}{{}}}
\bibstyle{plain}
\providecommand\NAT@force@numbers{}\NAT@force@numbers
\newlabel{eq:chi}{{16}{2}{}{}{}}
\newlabel{eq:R}{{17}{2}{}{}{}}
\newlabel{eq:xi}{{18}{2}{}{}{}}
\newlabel{eq:eta}{{19}{2}{}{}{}}
\newlabel{eq:zeta}{{20}{2}{}{}{}}
\newlabel{eq:big-E}{{21}{2}{}{}{}}
\newlabel{eq:cusp}{{22}{2}{}{}{}}
\@writefile{toc}{\contentsline {section}{\numberline {III}Methods}{2}{}}
\@writefile{toc}{\contentsline {section}{\numberline {IV}Results and Discussion}{2}{}}
\@writefile{toc}{\contentsline {section}{\numberline {V}Conclusion}{2}{}}
\@writefile{toc}{\contentsline {section}{\numberline {}References}{2}{}}
\newlabel{LastBibItem}{{6}{2}{}{}{}}
\newlabel{LastPage}{{}{2}{}{}{}}
